Lab02/Lab2_4_bit_sub.vcd
$date
	Sat May  7 19:48:00 2022
$end
$version
	Icarus Verilog
$end
$timescale
	1s
$end
$scope module t_Lab2_4_bit_sub $end
$var wire 1 ! bout $end
$var wire 4 " D [3:0] $end
$var reg 4 # A [3:0] $end
$var reg 4 $ B [3:0] $end
$var reg 1 % bin $end
$scope module M_BRS $end
$var wire 4 & A [3:0] $end
$var wire 4 ' B [3:0] $end
$var wire 1 % bin $end
$var wire 1 ( w3 $end
$var wire 1 ) w2 $end
$var wire 1 * w1 $end
$var wire 1 ! bout $end
$var wire 4 + D [3:0] $end
$scope module M0 $end
$var wire 1 , a $end
$var wire 1 - b $end
$var wire 1 % bin $end
$var wire 1 * bout $end
$var wire 1 . w3 $end
$var wire 1 / w2 $end
$var wire 1 0 w1 $end
$var wire 1 1 diff $end
$scope module M0 $end
$var wire 1 % b $end
$var wire 1 / bout $end
$var wire 1 1 diff $end
$var wire 1 2 w1 $end
$var wire 1 0 a $end
$upscope $end
$scope module M1 $end
$var wire 1 , a $end
$var wire 1 - b $end
$var wire 1 . bout $end
$var wire 1 0 diff $end
$var wire 1 3 w1 $end
$upscope $end
$upscope $end
$scope module M1 $end
$var wire 1 4 a $end
$var wire 1 5 b $end
$var wire 1 * bin $end
$var wire 1 ) bout $end
$var wire 1 6 w3 $end
$var wire 1 7 w2 $end
$var wire 1 8 w1 $end
$var wire 1 9 diff $end
$scope module M0 $end
$var wire 1 * b $end
$var wire 1 7 bout $end
$var wire 1 9 diff $end
$var wire 1 : w1 $end
$var wire 1 8 a $end
$upscope $end
$scope module M1 $end
$var wire 1 4 a $end
$var wire 1 5 b $end
$var wire 1 6 bout $end
$var wire 1 8 diff $end
$var wire 1 ; w1 $end
$upscope $end
$upscope $end
$scope module M2 $end
$var wire 1 < a $end
$var wire 1 = b $end
$var wire 1 ) bin $end
$var wire 1 ( bout $end
$var wire 1 > w3 $end
$var wire 1 ? w2 $end
$var wire 1 @ w1 $end
$var wire 1 A diff $end
$scope module M0 $end
$var wire 1 ) b $end
$var wire 1 ? bout $end
$var wire 1 A diff $end
$var wire 1 B w1 $end
$var wire 1 @ a $end
$upscope $end
$scope module M1 $end
$var wire 1 < a $end
$var wire 1 = b $end
$var wire 1 > bout $end
$var wire 1 @ diff $end
$var wire 1 C w1 $end
$upscope $end
$upscope $end
$scope module M3 $end
$var wire 1 D a $end
$var wire 1 E b $end
$var wire 1 ( bin $end
$var wire 1 ! bout $end
$var wire 1 F w3 $end
$var wire 1 G w2 $end
$var wire 1 H w1 $end
$var wire 1 I diff $end
$scope module M0 $end
$var wire 1 ( b $end
$var wire 1 G bout $end
$var wire 1 I diff $end
$var wire 1 J w1 $end
$var wire 1 H a $end
$upscope $end
$scope module M1 $end
$var wire 1 D a $end
$var wire 1 E b $end
$var wire 1 F bout $end
$var wire 1 H diff $end
$var wire 1 K w1 $end
$upscope $end
$upscope $end
$upscope $end
$upscope $end
$enddefinitions $end
#0
$dumpvars
1K
xJ
xI
xH
xG
xF
1E
0D
1C
xB
xA
x@
x?
x>
1=
0<
1;
x:
x9
x8
x7
x6
05
04
13
x2
x1
x0
x/
x.
0-
0,
bx +
x*
x)
x(
b1100 '
b0 &
1%
b1100 $
b0 #
bx "
x!
$end
#2
0.
06
1>
1F
#4
12
1:
0B
0J
1(
1!
00
08
1@
1H
#6
1/
0?
0G
#8
1*
11
b0xx1 "
b0xx1 +
0I
#10
17
#12
1)
b0x11 "
b0x11 +
19
#16
b11 "
b11 +
0A
#100
03
15
0=
0E
1,
b10 $
b10 '
b1 #
b1 &
#102
16
0>
0F
#104
0:
1B
1J
02
0(
0!
18
0@
0H
10
#106
07
1?
0/
#108
1(
0*
09
1A
b100 "
b100 +
01
#110
1G
#112
1!
1I
b1110 "
b1110 +
19
#200
0;
1=
14
b110 $
b110 '
b11 #
b11 &
#202
06
1>
#204
0B
1:
0)
1@
08
#206
0?
#208
b1100 "
b1100 +
09
#300
1;
0C
1-
0=
1E
04
1<
0%
b1011 $
b1011 '
b101 #
b101 &
#302
16
0>
1F
#304
12
0J
0:
1)
0(
00
1H
18
b1101 "
b1101 +
11
#306
0G
#308
0A
01
b1010 "
b1010 +
19
#400
0;
0-
14
1%
b1010 $
b1010 '
b111 #
b111 &
#402
06
1/
#404
02
1:
0)
1*
10
08
b1011 "
b1011 +
11
#406
0/
17
#408
0*
1)
1A
b1110 "
b1110 +
01
#410
07
#412
0)
09
b1000 "
b1000 +
0A
#416
b1100 "
b1100 +
1A
#500
13
1;
1C
0K
1-
05
0E
0,
04
0<
1D
0%
b1 $
b1 '
b1000 #
b1000 &
#502
1.
0F
#504
1B
1*
0!
0@
b1101 "
b1101 +
11
#506
17
#508
1)
19
b1011 "
b1011 +
0A
#510
1?
#512
1(
b1111 "
b1111 +
1A
#516
b111 "
b111 +
0I
#600
03
0;
0-
15
1=
1,
14
b110 $
b110 '
b1011 #
b1011 &
#602
0.
1>
#604
0B
0*
1@
#606
0?
07
#608
0)
09
b1 "
b1 +
0A
#612
b101 "
b101 +
1A
#700
0C
1-
1E
1<
1%
b1111 $
b1111 '
b1111 #
b1111 &
#702
0>
#704
12
1J
1B
0(
00
0H
0@
b100 "
b100 +
01
#706
1/
#708
1*
11
b1 "
b1 +
0A
#710
17
#712
1)
b11 "
b11 +
19
#714
1?
#716
1(
b111 "
b111 +
1A
#718
1G
#720
1!
b1111 "
b1111 +
1I
